Case_study
…
Xue Yang

10/9/2018

Load the data

library(p8105.datasets)
data(nyc_airbnb)

View the data

nyc_airbnb

## # A tibble: 40,753 x 17
##        id review_scores_l~ name  host_id host_name neighbourhood_g~
##     <int>            <int> <chr>   <int> <chr>     <chr>           
##  1 7.95e6               10 City~  1.19e5 Linda & ~ Bronx           
##  2 1.60e7               NA WATE~  9.12e6 Collins   Bronx           
##  3 1.89e6               NA Quai~  9.82e6 Steve     Bronx           
##  4 6.63e6               10 Larg~  1.39e7 Arlene    Bronx           
##  5 5.56e6               10 Quai~  2.88e7 Phoebe    Bronx           
##  6 9.15e6               10 Cozy~  4.03e5 Diane     Bronx           
##  7 1.17e7               10 Cozy~  5.67e7 Josue     Bronx           
##  8 7.15e5                9 2 Be~  3.68e6 Enrique   Bronx           
##  9 1.79e7               10 Spac~  1.13e7 Yahaira   Bronx           
## 10 1.82e5                9 PRIV~  8.73e5 Christia~ Bronx           
## # ... with 40,743 more rows, and 11 more variables: neighbourhood <chr>,
## #   latitude <dbl>, longitude <dbl>, room_type <chr>, price <int>,
## #   minimum_nights <int>, number_of_reviews <int>, last_review <date>,
## #   reviews_per_month <dbl>, calculated_host_listings_count <int>,
## #   availability_365 <int>
…
## # A tibble: 5 x 2
##   boro              n
##   <chr>         <int>
## 1 Bronx           649
## 2 Brooklyn      16810
## 3 Manhattan     19212
## 4 Queens         3821
## 5 Staten Island   261

nyc_airbnb %>% 
  count(boro, neighbourhood)

## # A tibble: 217 x 3
##    boro  neighbourhood         n
##    <chr> <chr>             <int>
##  1 Bronx Allerton             23
##  2 Bronx Baychester            6
##  3 Bronx Belmont               8
##  4 Bronx Bronxdale            12
##  5 Bronx Castle Hill           1
##  6 Bronx City Island           7
##  7 Bronx Claremont Village     9
##  8 Bronx Clason Point         21
##  9 Bronx Co-op City            5
## 10 Bronx Concourse            37
## # ... with 207 more rows
…
Which listing have the most unfilled days?

Which area has the highest density of listings?

What are some host characteristics? How many listing? Whats asociated with rating?

Some answers

Does rating vary by neighborhood, room type, or both?

nyc_airbnb %>%
  group_by(neighbourhood) %>%
  summarize(median(stars, na.rm = TRUE))

## # A tibble: 217 x 2
##    neighbourhood              `median(stars, na.rm = TRUE)`
##    <chr>                                              <dbl>
##  1 Allerton                                             4.5
##  2 Arden Heights                                        5  
##  3 Arrochar                                             4.5
##  4 Arverne                                              4.5
##  5 Astoria                                              5  
##  6 Bath Beach                                           4.5
##  7 Battery Park City                                    5  
##  8 Bay Ridge                                            5  
##  9 Bay Terrace                                          4.5
## 10 Bay Terrace, Staten Island                          NA  
## # ... with 207 more rows
…
nyc_airbnb %>%
  select(boro, neighbourhood, price) %>%
  filter(boro == "Manhattan") %>%
  group_by(neighbourhood) %>%
  summarize(n_listings= n(),
            mean_price = mean(price, na.rm = TRUE),
            median_price = median(price, na.rm = TRUE),
            ) %>%
  arrange(mean_price) 

## # A tibble: 32 x 4
##    neighbourhood       n_listings mean_price median_price
##    <chr>                    <int>      <dbl>        <dbl>
##  1 Marble Hill                 11       83.6         88  
##  2 Inwood                     230       86.5         75  
##  3 Washington Heights         870       90.1         70.5
##  4 Morningside Heights        395      107.          90  
##  5 Harlem                    2524      117.          89  
##  6 Roosevelt Island            59      122.          79  
##  7 Two Bridges                 55      123.         120  
##  8 East Harlem               1048      128.          98  
##  9 Chinatown                  360      158.         120  
## 10 Upper East Side           1543      172.         140  
## # ... with 22 more rows
…
